<?xml version="1.0" encoding="utf-8"?>
<!-- Generator: Adobe Illustrator 16.0.0, SVG Export Plug-In . SVG Version: 6.00 Build 0)  -->
<!DOCTYPE svg PUBLIC "-//W3C//DTD SVG 1.1//EN" "http://www.w3.org/Graphics/SVG/1.1/DTD/svg11.dtd">
<svg version="1.1" id="_x30_" xmlns="http://www.w3.org/2000/svg" xmlns:xlink="http://www.w3.org/1999/xlink" x="0px" y="0px"
	 width="650px" height="470px" viewBox="0 0 650 470" enable-background="new 0 0 650 470" xml:space="preserve">
<g>
	<g id="HATCH">
		<path fill-rule="evenodd" clip-rule="evenodd" fill="#F8941E" d="M324.442,447.077h98.172V277.434l69.029,37.119
			c4.722,1.954,10.257,0,12.536-4.884l55.68-118.523h23.444c6.187-0.651,11.07-5.861,11.07-12.047v-8.466h-58.61
			c-5.697-0.326-10.419,4.232-11.07,9.768l-36.143,71.96c-22.305-10.745-44.121-22.793-65.448-35.492
			c-17.095-10.42-35.004-19.211-53.727-26.049c-10.257-3.907-21.327-5.861-32.235-5.861h-12.699h-12.536
			c-11.071,0-21.979,1.954-32.236,5.861c-18.723,6.838-36.794,15.629-53.726,26.049c-21.328,12.699-43.144,24.747-65.611,35.492
			l-36.143-71.96c-0.489-5.536-5.21-10.094-10.908-9.768H54.509v8.466c0,6.187,4.884,11.396,11.233,12.047h23.444l55.68,118.523
			c2.279,4.884,7.814,6.838,12.536,4.884l69.03-37.119v169.644H324.442L324.442,447.077z M394.937,93.462
			c0-39.074-31.584-70.658-70.495-70.658s-70.333,31.584-70.333,70.658c0,38.748,31.422,70.333,70.333,70.333
			S394.937,132.21,394.937,93.462L394.937,93.462z"/>
	</g>
	<g id="CIRCLE">
		
			<path fill="none" stroke="#F8941E" stroke-width="0.7087" stroke-linecap="round" stroke-linejoin="round" stroke-miterlimit="10" d="
			M394.943,93.351c0-38.905-31.539-70.443-70.443-70.443c-38.905,0-70.443,31.539-70.443,70.443
			c0,38.904,31.538,70.443,70.443,70.443C363.404,163.793,394.943,132.255,394.943,93.351L394.943,93.351z"/>
	</g>
	<g id="LWPOLYLINE">
		
			<path fill="none" stroke="#F8941E" stroke-width="0.7087" stroke-linecap="round" stroke-linejoin="round" stroke-miterlimit="10" d="
			M324.5,447.093h98.089V277.336l69.062,37.148c4.747,2.072,10.281-0.013,12.482-4.702l55.746-118.785h23.401
			c6.283-0.486,11.135-5.727,11.135-12.03v-8.421H535.73c-5.646-0.091-10.419,4.157-10.984,9.774l-36.145,72.086
			c-22.348-10.911-44.198-22.812-65.487-35.667c-17.051-10.295-35.038-18.956-53.72-25.864c-10.343-3.825-21.284-5.784-32.313-5.784
			H324.5h-12.583c-11.028,0-21.969,1.958-32.313,5.784c-18.682,6.909-36.668,15.569-53.719,25.864
			c-21.289,12.854-43.14,24.755-65.488,35.667l-36.144-72.086c-0.565-5.617-5.34-9.865-10.985-9.774H54.585v8.421
			c0,6.303,4.851,11.543,11.135,12.03h23.401l55.746,118.785c2.201,4.689,7.734,6.774,12.482,4.702l69.062-37.148v169.757H324.5z"/>
	</g>
	<g id="HATCH_1_">
		<path fill-rule="evenodd" clip-rule="evenodd" fill="#F8941E" d="M46.694,48.202h85.799v86.613H46.694V48.202L46.694,48.202z
			 M26.995,28.34h125.198v126.338H26.995V28.34L26.995,28.34z"/>
	</g>
	<g id="LWPOLYLINE_1_">
		
			<rect x="26.951" y="28.492" fill="none" stroke="#F8941E" stroke-width="0.7087" stroke-linecap="round" stroke-linejoin="round" stroke-miterlimit="10" width="125.297" height="126.243"/>
	</g>
	<g id="LWPOLYLINE_2_">
		
			<rect x="46.728" y="48.27" fill="none" stroke="#F8941E" stroke-width="0.7087" stroke-linecap="round" stroke-linejoin="round" stroke-miterlimit="10" width="85.743" height="86.688"/>
	</g>
	<g id="LWPOLYLINE_3_">
		
			<rect x="496.752" y="28.492" fill="none" stroke="#F8941E" stroke-width="0.7087" stroke-linecap="round" stroke-linejoin="round" stroke-miterlimit="10" width="125.297" height="126.243"/>
	</g>
	<g id="POLYLINE">
		
			<polyline fill="none" stroke="#F8941E" stroke-width="0.7087" stroke-linecap="round" stroke-linejoin="round" stroke-miterlimit="10" points="
			557.13,119.373 555.084,118.964 552.016,117.409 549.315,114.791 548.252,113.072 547.024,109.799 546.165,105.667 		"/>
	</g>
	<g id="POLYLINE_1_">
		
			<polyline fill="none" stroke="#F8941E" stroke-width="0.7087" stroke-linecap="round" stroke-linejoin="round" stroke-miterlimit="10" points="
			546.165,105.667 538.392,107.099 538.924,110.822 539.946,114.259 541.501,117.286 542.442,118.677 544.938,121.377 
			547.761,123.26 549.725,124.16 553.12,125.183 557.13,125.878 557.13,129.744 561.671,129.744 561.671,125.796 562.203,125.755 
			565.885,125.224 569.24,124.078 572.227,122.359 574.845,120.068 575.131,119.782 		"/>
	</g>
	<g id="HATCH_2_">
		<path fill-rule="evenodd" clip-rule="evenodd" fill="#F8941E" d="M622.052,28.34H496.69v126.338h125.361V28.34z M538.369,107.138
			l7.814-1.628l0.814,4.233l1.303,3.256l0.977,1.954l2.768,2.604l3.093,1.303l1.954,0.651V94.765l-3.256-0.651l-3.419-1.303
			l-3.094-1.628l-2.768-2.279l-2.279-2.605c-0.488-0.977-1.954-4.233-1.954-4.233l-0.488-3.582c-0.162-1.303,0.163-5.21,0.163-5.21
			l0.977-3.256l1.628-2.931l2.279-2.605c0.651-0.651,3.257-2.279,3.257-2.279l3.256-1.302l3.744-0.977l1.954-0.326v-3.582h4.559
			v3.582l3.907,0.651l3.419,1.302l2.768,1.628c0.651,0.325,3.094,2.93,3.094,2.93l1.791,2.931l1.302,3.256l0.489,2.93l-7.979,0.977
			l-0.977-3.582l-1.628-2.93c-0.163-0.326-2.931-2.605-2.931-2.605l-3.256-0.977v22.142l4.559,1.303l2.768,0.977
			c0.326,0,3.744,1.954,3.744,1.954l2.605,1.954l2.116,2.93l1.303,2.605l0.977,3.256l0.163,3.582l-0.163,3.582l-0.977,3.582
			l-1.466,2.93l-2.116,2.931c-0.325,0.326-2.931,2.605-2.931,2.605l-2.93,1.628l-3.42,1.303l-3.744,0.326
			c-0.488,0-0.488,3.907-0.488,3.907h-4.559v-3.582l-3.907-0.977l-3.419-0.977l-1.954-0.651l-2.931-1.954l-2.441-2.93
			c-0.977-1.303-2.442-4.233-2.442-4.233l-1.14-3.582L538.369,107.138z M549.603,83.043l-1.628-2.931l-0.488-3.582
			c0-0.325,0.651-3.907,0.651-3.907l1.953-2.93c0.651-0.651,3.419-2.605,3.419-2.605l3.582-0.977v21.165l-1.628-0.326l-3.419-1.628
			L549.603,83.043z M561.65,95.742l2.768,1.302l3.419,1.628l2.116,1.628l1.629,3.256l0.488,3.582l-0.163,1.954l-0.977,3.582
			l-1.791,2.93c-0.978,0.977-4.07,2.931-4.07,2.931l-3.419,0.977V95.742z"/>
	</g>
	<g id="POLYLINE_2_">
		
			<line fill="none" stroke="#F8941E" stroke-width="0.7087" stroke-linecap="round" stroke-linejoin="round" stroke-miterlimit="10" x1="561.671" y1="119.373" x2="561.671" y2="95.889"/>
	</g>
	<g id="POLYLINE_3_">
		
			<line fill="none" stroke="#F8941E" stroke-width="0.7087" stroke-linecap="round" stroke-linejoin="round" stroke-miterlimit="10" x1="557.13" y1="94.825" x2="557.13" y2="119.373"/>
	</g>
	<g id="POLYLINE_4_">
		
			<line fill="none" stroke="#F8941E" stroke-width="0.7087" stroke-linecap="round" stroke-linejoin="round" stroke-miterlimit="10" x1="561.671" y1="88.402" x2="561.671" y2="66.146"/>
	</g>
	<g id="HATCH_3_">
		<path fill-rule="evenodd" clip-rule="evenodd" fill="#F8941E" d="M571.582,103.557l-1.629-3.256l-2.116-1.628l-3.419-1.628
			l-2.768-1.302v23.77l3.419-0.977l3.093-1.954c0.978-0.977,2.769-3.907,2.769-3.907l0.977-3.582l0.163-1.954L571.582,103.557z
			 M557.092,66.111l-3.582,0.977l-2.768,1.954c-0.651,0.651-2.604,3.582-2.604,3.582l-0.651,3.582c0,0.325,0.488,3.907,0.488,3.907
			l1.628,2.931l2.442,2.279l3.419,1.628l1.628,0.326V66.111z"/>
	</g>
	<g id="POLYLINE_5_">
		
			<line fill="none" stroke="#F8941E" stroke-width="0.7087" stroke-linecap="round" stroke-linejoin="round" stroke-miterlimit="10" x1="557.13" y1="66.063" x2="557.13" y2="87.379"/>
	</g>
	<g id="POLYLINE_6_">
		
			<polyline fill="none" stroke="#F8941E" stroke-width="0.7087" stroke-linecap="round" stroke-linejoin="round" stroke-miterlimit="10" points="
			561.671,66.146 564.903,67.25 567.604,69.296 567.849,69.582 569.485,72.487 570.427,76.292 578.404,75.105 577.872,72.364 
			576.604,68.969 574.764,66.063 		"/>
	</g>
	<g id="POLYLINE_7_">
		
			<polyline fill="none" stroke="#F8941E" stroke-width="0.7087" stroke-linecap="round" stroke-linejoin="round" stroke-miterlimit="10" points="
			561.671,66.146 564.903,67.25 567.604,69.296 567.849,69.582 569.485,72.487 570.427,76.292 578.404,75.105 577.872,72.364 
			576.604,68.969 574.764,66.063 		"/>
	</g>
	<g id="POLYLINE_8_">
		
			<polyline fill="none" stroke="#F8941E" stroke-width="0.7087" stroke-linecap="round" stroke-linejoin="round" stroke-miterlimit="10" points="
			574.764,66.063 572.35,63.568 571.817,63.159 568.994,61.481 565.599,60.295 561.671,59.641 561.671,55.958 		"/>
	</g>
	<g id="POLYLINE_9_">
		
			<polyline fill="none" stroke="#F8941E" stroke-width="0.7087" stroke-linecap="round" stroke-linejoin="round" stroke-miterlimit="10" points="
			557.13,87.379 555.411,86.847 552.016,85.17 549.684,83.165 548.006,80.22 547.434,76.537 547.434,76.128 548.17,72.651 
			550.052,69.664 550.666,69.009 553.529,67.086 557.13,66.063 		"/>
	</g>
	<g id="POLYLINE_10_">
		
			<polyline fill="none" stroke="#F8941E" stroke-width="0.7087" stroke-linecap="round" stroke-linejoin="round" stroke-miterlimit="10" points="
			575.131,119.782 577.218,116.959 578.731,113.85 579.673,110.413 579.959,106.69 579.673,103.335 578.772,99.898 577.463,97.321 
			575.254,94.498 572.718,92.452 569.362,90.652 568.994,90.489 566.131,89.588 561.671,88.402 		"/>
	</g>
	<g id="POLYLINE_11_">
		
			<polyline fill="none" stroke="#F8941E" stroke-width="0.7087" stroke-linecap="round" stroke-linejoin="round" stroke-miterlimit="10" points="
			561.671,95.889 564.453,96.912 567.808,98.589 569.977,100.43 571.531,103.417 572.022,107.181 571.899,109.104 570.999,112.541 
			569.117,115.486 568.095,116.509 565.148,118.432 561.671,119.373 		"/>
	</g>
	<g id="POLYLINE_12_">
		
			<polyline fill="none" stroke="#F8941E" stroke-width="0.7087" stroke-linecap="round" stroke-linejoin="round" stroke-miterlimit="10" points="
			561.671,55.958 557.13,55.958 557.13,59.641 555.125,59.886 551.32,60.745 548.129,62.054 545.552,63.813 544.938,64.386 
			542.646,67.046 541.051,70.073 540.069,73.428 539.742,77.151 539.783,78.583 540.396,82.184 541.747,85.416 542.196,86.234 
			544.488,88.975 547.393,91.143 550.379,92.657 553.775,93.966 557.13,94.825 		"/>
	</g>
	<g id="POLYLINE_13_">
		
			<polyline fill="none" stroke="#F8941E" stroke-width="0.7087" stroke-linecap="round" stroke-linejoin="round" stroke-miterlimit="10" points="
			87.329,119.373 85.283,118.964 82.215,117.409 79.515,114.791 78.451,113.072 77.224,109.799 76.364,105.667 		"/>
	</g>
	<g id="POLYLINE_14_">
		
			<polyline fill="none" stroke="#F8941E" stroke-width="0.7087" stroke-linecap="round" stroke-linejoin="round" stroke-miterlimit="10" points="
			76.364,105.667 68.591,107.099 69.123,110.822 70.146,114.259 71.7,117.286 72.641,118.677 75.137,121.377 77.96,123.26 
			79.924,124.16 83.319,125.183 87.329,125.878 87.329,129.744 91.87,129.744 91.87,125.796 92.402,125.755 96.084,125.224 
			99.439,124.078 102.426,122.359 105.044,120.068 105.331,119.782 		"/>
	</g>
	<g id="POLYLINE_15_">
		
			<line fill="none" stroke="#F8941E" stroke-width="0.7087" stroke-linecap="round" stroke-linejoin="round" stroke-miterlimit="10" x1="91.87" y1="119.373" x2="91.87" y2="95.889"/>
	</g>
	<g id="POLYLINE_16_">
		
			<line fill="none" stroke="#F8941E" stroke-width="0.7087" stroke-linecap="round" stroke-linejoin="round" stroke-miterlimit="10" x1="87.329" y1="94.825" x2="87.329" y2="119.373"/>
	</g>
	<g id="POLYLINE_17_">
		
			<line fill="none" stroke="#F8941E" stroke-width="0.7087" stroke-linecap="round" stroke-linejoin="round" stroke-miterlimit="10" x1="91.87" y1="88.402" x2="91.87" y2="66.146"/>
	</g>
	<g id="HATCH_4_">
		<path fill-rule="evenodd" clip-rule="evenodd" fill="#F8941E" d="M105.468,94.439l-2.605-1.954l-3.256-1.954
			c-0.488,0-3.256-0.977-3.256-0.977l-4.559-1.303V66.111l3.256,0.977l2.768,2.279c0.163,0.326,1.791,3.256,1.791,3.256l0.977,3.582
			l7.977-0.977l-0.488-2.93l-1.302-3.256l-1.791-2.931l-2.442-2.605c-0.488-0.325-3.419-1.954-3.419-1.954l-3.256-1.302l-4.07-0.651
			v-3.582h-4.396v3.582l-2.117,0.326l-3.744,0.977l-3.256,1.302l-2.605,1.628c-0.488,0.651-2.768,3.256-2.768,3.256l-1.628,2.931
			l-0.977,3.256l-0.326,3.907c0,1.303,0.651,4.884,0.651,4.884l1.303,3.256c0.488,0.977,2.768,3.582,2.768,3.582l2.931,2.279
			l2.93,1.628l3.419,1.303l3.419,0.651v24.747l-2.117-0.651l-3.093-1.303l-2.605-2.604l-1.14-1.954l-1.14-3.256l-0.977-4.233
			l-7.814,1.628l0.651,3.582l0.977,3.582l1.628,2.93c0.814,1.303,3.419,4.233,3.419,4.233l2.768,1.954l1.954,0.651l3.419,0.977
			l4.07,0.977v3.582h4.396v-3.907c0.651,0,4.233-0.326,4.233-0.326l3.419-1.303l2.93-1.628l2.605-2.279
			c0.326-0.326,2.442-3.256,2.442-3.256l1.466-2.93l0.977-3.582l0.326-3.582l-0.326-3.582l-0.814-3.256l-1.465-2.605L105.468,94.439
			z M97.979,98.672l2.116,1.628l1.628,3.256l0.488,3.582l-0.163,1.954l-0.814,3.582l-1.954,2.93
			c-0.977,0.977-3.907,2.931-3.907,2.931l-3.582,0.977v-23.77l2.93,1.302L97.979,98.672z M87.396,87.276l-1.791-0.326l-3.418-1.628
			l-2.279-2.279l-1.628-2.931l-0.651-3.582c0-0.325,0.813-3.907,0.813-3.907l1.791-2.93c0.651-0.651,3.419-2.605,3.419-2.605
			l3.745-0.977V87.276z"/>
	</g>
	<g id="POLYLINE_18_">
		
			<line fill="none" stroke="#F8941E" stroke-width="0.7087" stroke-linecap="round" stroke-linejoin="round" stroke-miterlimit="10" x1="87.329" y1="66.063" x2="87.329" y2="87.379"/>
	</g>
	<g id="POLYLINE_19_">
		
			<polyline fill="none" stroke="#F8941E" stroke-width="0.7087" stroke-linecap="round" stroke-linejoin="round" stroke-miterlimit="10" points="
			91.87,66.146 95.102,67.25 97.803,69.296 98.048,69.582 99.685,72.487 100.625,76.292 108.604,75.105 108.072,72.364 
			106.803,68.969 104.962,66.063 		"/>
	</g>
	<g id="POLYLINE_20_">
		
			<polyline fill="none" stroke="#F8941E" stroke-width="0.7087" stroke-linecap="round" stroke-linejoin="round" stroke-miterlimit="10" points="
			91.87,66.146 95.102,67.25 97.803,69.296 98.048,69.582 99.685,72.487 100.625,76.292 108.604,75.105 108.072,72.364 
			106.803,68.969 104.962,66.063 		"/>
	</g>
	<g id="POLYLINE_21_">
		
			<polyline fill="none" stroke="#F8941E" stroke-width="0.7087" stroke-linecap="round" stroke-linejoin="round" stroke-miterlimit="10" points="
			104.962,66.063 102.548,63.568 102.017,63.159 99.193,61.481 95.798,60.295 91.87,59.641 91.87,55.958 		"/>
	</g>
	<g id="POLYLINE_22_">
		
			<polyline fill="none" stroke="#F8941E" stroke-width="0.7087" stroke-linecap="round" stroke-linejoin="round" stroke-miterlimit="10" points="
			87.329,87.379 85.61,86.847 82.215,85.17 79.883,83.165 78.206,80.22 77.633,76.537 77.633,76.128 78.369,72.651 80.251,69.664 
			80.865,69.009 83.729,67.086 87.329,66.063 		"/>
	</g>
	<g id="POLYLINE_23_">
		
			<polyline fill="none" stroke="#F8941E" stroke-width="0.7087" stroke-linecap="round" stroke-linejoin="round" stroke-miterlimit="10" points="
			105.331,119.782 107.417,116.959 108.931,113.85 109.872,110.413 110.158,106.69 109.872,103.335 108.972,99.898 107.663,97.321 
			105.453,94.498 102.917,92.452 99.562,90.652 99.193,90.489 96.33,89.588 91.87,88.402 		"/>
	</g>
	<g id="POLYLINE_24_">
		
			<polyline fill="none" stroke="#F8941E" stroke-width="0.7087" stroke-linecap="round" stroke-linejoin="round" stroke-miterlimit="10" points="
			91.87,95.889 94.652,96.912 98.007,98.589 100.175,100.43 101.73,103.417 102.221,107.181 102.098,109.104 101.198,112.541 
			99.316,115.486 98.293,116.509 95.348,118.432 91.87,119.373 		"/>
	</g>
	<g id="POLYLINE_25_">
		
			<polyline fill="none" stroke="#F8941E" stroke-width="0.7087" stroke-linecap="round" stroke-linejoin="round" stroke-miterlimit="10" points="
			91.87,55.958 87.329,55.958 87.329,59.641 85.324,59.886 81.52,60.745 78.328,62.054 75.75,63.813 75.137,64.386 72.846,67.046 
			71.25,70.073 70.269,73.428 69.941,77.151 69.982,78.583 70.596,82.184 71.946,85.416 72.396,86.234 74.687,88.975 77.592,91.143 
			80.578,92.657 83.974,93.966 87.329,94.825 		"/>
	</g>
</g>
</svg>
