<?xml version="1.0" encoding="utf-8"?>
<!-- Generator: Adobe Illustrator 16.0.0, SVG Export Plug-In . SVG Version: 6.00 Build 0)  -->
<!DOCTYPE svg PUBLIC "-//W3C//DTD SVG 1.1//EN" "http://www.w3.org/Graphics/SVG/1.1/DTD/svg11.dtd">
<svg version="1.1" xmlns="http://www.w3.org/2000/svg" xmlns:xlink="http://www.w3.org/1999/xlink" x="0px" y="0px"
	 width="446.854px" height="446.854px" viewBox="466.854 0 446.854 446.854" enable-background="new 466.854 0 446.854 446.854"
	 xml:space="preserve">
<g id="Capa_1">
</g>
<g id="Capa_2">
</g>
<g id="Capa_3">
</g>
<g id="Capa_4" display="none">
	
		<text transform="matrix(1.0004 0 0 1 632.3196 400.7571)" display="inline" fill="#F8941E" font-family="'Raleway-SemiBold'" font-size="43.1022">SELF</text>
</g>
<g id="Capa_5">
	<g>
		<g>
			<polygon fill="#F8941E" points="703.003,154.908 702.427,154.474 702.001,153.905 701.861,153.188 702.001,152.547 
				715.478,120.42 721.265,106.64 719.118,103.144 716.7,99.713 714.054,96.575 711.13,93.569 707.995,90.858 704.714,88.362 
				701.214,86.149 697.503,84.22 693.724,82.578 689.798,81.217 685.736,80.222 681.661,79.505 677.531,79.147 673.388,79.078 
				669.249,79.288 665.111,79.93 661.12,80.789 657.122,82.002 660.187,85.507 662.894,89.147 665.4,93.002 667.615,97.074 
				667.615,105.563 673.839,120.42 687.302,152.547 687.447,153.188 687.302,153.905 686.943,154.474 686.304,154.908 
				685.659,155.049 672.82,155.049 672.82,172.043 671.677,174.832 670.251,177.543 668.605,180.039 666.681,182.392 
				664.615,184.539 668.751,185.181 672.888,185.464 677.027,185.464 681.171,185.106 685.31,184.464 689.37,183.47 
				693.296,182.109 697.146,180.541 700.857,178.612 704.357,176.4 707.71,173.972 710.913,171.259 713.845,168.254 
				716.482,165.116 716.482,155.049 703.712,155.049 			"/>
			<path fill="#F8941E" d="M787.118,47.163l-0.568-2.212l-1.002-2.069l-1.285-1.863l-1.633-1.645l-1.865-1.284l-2.07-0.926
				l-2.209-0.646l-2.277-0.206h-168.82l-2.279,0.206l-2.141,0.646l-2.068,0.926l-1.93,1.284l-1.57,1.645l-1.352,1.863l-0.926,2.069
				l-0.645,2.212l-0.143,2.287v70.969v97.463l0.143,2.275l0.645,2.146l0.926,2.146l1.352,1.852l1.57,1.58l1.93,1.352l2.068,0.926
				l2.141,0.639l2.279,0.146h80.629v73.047l-2.637,0.568l-2.574,1.002l-2.426,1.207l-2.279,1.57l-2.068,1.789l-1.852,2l-1.57,2.287
				l-1.285,2.434l-1.002,2.566l-0.709,2.637l-0.357,2.715v2.715l0.281,2.785l0.645,2.637l0.988,2.574l1.221,2.428l1.57,2.285
				l1.783,2.07l2.074,1.852l2.279,1.578l2.428,1.213l2.566,0.996l2.643,0.646l2.709,0.357h2.783l2.709-0.357l2.643-0.646
				l2.566-0.996l2.418-1.213l2.289-1.578l2.006-1.852l1.852-2.07l1.492-2.285l1.291-2.428l0.996-2.574l0.568-2.637l0.357-2.785
				v-2.715l-0.357-2.715l-0.709-2.637l-1.002-2.566l-1.285-2.434l-1.57-2.287l-1.852-2l-2.068-1.789l-2.287-1.57l-2.418-1.207
				l-2.574-1.002l-2.715-0.568v-73.047h80.631l2.277-0.146l2.209-0.639l2.07-0.926l1.865-1.352l1.633-1.58l1.285-1.852l1.002-2.146
				l0.568-2.146l0.217-2.275V120.42V49.45L787.118,47.163z M753.659,209.888h-7.561v-17.921h-8.641l-3.143-1.144l-2.994-1.427
				l-2.854-1.787l-2.637-2.001l-2.428-2.287l-2.139-2.571l-1.928-2.714l-1.572-2.92l-3.275,3.063l-3.576,2.862l-3.701,2.569
				l-3.859,2.28l-4.066,2.003l-4.207,1.642l-4.355,1.353l-4.42,1.078l-4.426,0.708l-4.492,0.361h-4.566l-4.496-0.285l-4.496-0.644
				l-4.426-1l-4.275-1.286l-4.279-1.568l-4.076-1.928l-3.92-2.287l-3.781-2.497l-3.566-2.786l-3.354-3.071l-3.072-3.281
				l-2.855-3.505l-2.637-3.714l-2.287-3.924l-1.996-3.998l-1.711-4.213l-1.354-4.358l-1.074-4.348l-0.709-4.5l-0.426-4.499
				l-0.078-4.573l0.287-4.498l0.645-4.499l0.281-1.353l0.645-3.072l1.283-4.356l1.57-4.216l1.93-4.138l2.209-3.924l2.496-3.789
				l2.787-3.565l3-3.431l3.275-3.069l3.5-2.932l3.639-2.571l3.922-2.353l3.998-1.994l4.207-1.786l4.285-1.361l4.418-1.144
				l4.426-0.708l4.564-0.436l4.502-0.065l4.488,0.218l4.496,0.642l4.426,0.926l4.348,1.21l4.285,1.57l4.063,1.928l4.002,2.144
				l3.779,2.497l3.572,2.719l3.422,3.064l3.135,3.212l2.855,3.508l2.215-3.792l2.496-3.636l2.777-3.431l3.002-3.215l3.143-2.995
				l3.422-2.789l3.639-2.497l3.779-2.286l3.922-1.926l4.066-1.711l4.139-1.361l4.285-1.069l4.355-0.785l0.994,7.497l-4.135,0.717
				l-3.998,1.069l-3.998,1.361l-3.779,1.711l-3.713,1.994l-3.49,2.218l-3.354,2.571l-3.141,2.78l-2.926,2.998l-2.643,3.288
				l-2.35,3.43l-2.146,3.64v8.137l-5.586,13.355l-11.324,27.06h11.699v23.136l1.145,2.353l1.352,2.213l1.58,2.069l1.779,1.863
				l2,1.636l2.068,1.434l2.279,1.211l2.432,1h14.982V209.888z M749.165,121.629l-0.43,1.144l-0.645,1.002l-0.85,0.852l-1.002,0.642
				l-1.145,0.436l-1.213,0.141l-1.215-0.141l-1.135-0.436l-1.08-0.642l-0.848-0.852l-0.645-1.002l-0.428-1.144l-0.141-1.209
				l0.141-1.218l0.428-1.21l0.645-1.003l0.848-0.851l1.08-0.642l1.135-0.436l1.215-0.14l1.213,0.14l1.145,0.436l1.002,0.642
				l0.85,0.851l0.645,1.003l0.43,1.21l0.137,1.218L749.165,121.629z"/>
			<path fill="#F8941E" d="M665.251,147.48h11.705l-11.33-27.06l-5.586-13.355v-8.137l-2.131-3.714l-2.498-3.574l-2.713-3.278
				l-2.996-3.072l-3.639,2.069l-3.422,2.43l-3.213,2.637l-3.072,2.929l-2.783,3.147l-2.49,3.355l-2.287,3.497l-1.998,3.714
				l-1.641,3.857l-1.354,3.998l-0.936,3.497l-0.137,0.501l-0.717,4.139l-0.426,4.216l-0.072,4.207l0.281,4.141l0.576,4.213
				l0.926,4.072l1.213,3.998l1.5,3.924l1.852,3.789l2.139,3.573l2.428,3.422l2.713,3.288l2.924,2.997l3.145,2.713l3.35,2.57
				l3.494,2.211l3.717,1.928l3.848,1.712l2.498-1.778l2.217-2.077l1.92-2.279l1.643-2.572l1.354-2.712V147.48z M650.769,121.629
				l-0.428,1.144l-0.639,1.002l-0.861,0.852l-0.994,0.642l-1.145,0.436l-1.215,0.141l-1.213-0.141l-1.143-0.436l-1.066-0.642
				l-0.854-0.852l-0.641-1.002l-0.436-1.144l-0.139-1.209l0.139-1.218l0.436-1.21l0.641-1.003l0.854-0.851l1.066-0.642l1.143-0.436
				l1.213-0.14l1.215,0.14l1.145,0.436l0.994,0.642l0.861,0.851l0.639,1.003l0.428,1.21l0.141,1.218L650.769,121.629z"/>
		</g>
		<g enable-background="new    ">
			<path fill="#F8941E" d="M660.148,377.353c-0.287-0.316-0.705-0.653-1.25-1.014c-0.547-0.358-1.186-0.695-1.918-1.012
				c-0.734-0.316-1.539-0.575-2.416-0.776c-0.877-0.2-1.775-0.302-2.695-0.302c-2.041,0-3.543,0.373-4.506,1.121
				c-0.963,0.747-1.443,1.781-1.443,3.104c0,0.747,0.15,1.357,0.453,1.831c0.301,0.474,0.768,0.892,1.4,1.25
				c0.633,0.36,1.424,0.676,2.371,0.948c0.949,0.273,2.055,0.568,3.32,0.884c1.553,0.374,2.955,0.79,4.205,1.25
				s2.307,1.021,3.168,1.681c0.863,0.662,1.531,1.473,2.006,2.436s0.711,2.133,0.711,3.513c0,1.552-0.295,2.888-0.883,4.009
				c-0.59,1.121-1.395,2.033-2.416,2.736c-1.02,0.705-2.205,1.223-3.557,1.553s-2.803,0.495-4.355,0.495
				c-2.328,0-4.578-0.352-6.748-1.056s-4.133-1.731-5.885-3.082l2.199-4.139c0.373,0.375,0.912,0.791,1.615,1.25
				c0.705,0.461,1.523,0.885,2.459,1.271c0.934,0.389,1.947,0.719,3.039,0.992s2.229,0.409,3.406,0.409
				c1.898,0,3.363-0.33,4.398-0.991c1.035-0.66,1.553-1.638,1.553-2.932c0-0.775-0.193-1.422-0.582-1.939
				c-0.389-0.517-0.941-0.969-1.66-1.357c-0.719-0.388-1.596-0.739-2.631-1.056c-1.035-0.315-2.213-0.646-3.535-0.991
				c-1.523-0.402-2.854-0.826-3.988-1.271c-1.137-0.445-2.078-0.984-2.824-1.617c-0.748-0.631-1.316-1.371-1.703-2.219
				c-0.389-0.848-0.582-1.875-0.582-3.082c0-1.494,0.287-2.823,0.861-3.987c0.576-1.163,1.359-2.14,2.35-2.931
				c0.992-0.79,2.164-1.387,3.516-1.789c1.35-0.402,2.816-0.604,4.398-0.604c2.068,0,3.98,0.331,5.734,0.992
				c1.752,0.66,3.291,1.48,4.613,2.456L660.148,377.353z"/>
			<path fill="#F8941E" d="M689.382,396.49v4.268h-20.998v-30.603h20.611v4.267h-15.783v8.707h13.67v4.009h-13.67v9.353H689.382z"/>
			<path fill="#F8941E" d="M694.384,400.757v-30.603h4.83v26.335h16.428v4.268H694.384z"/>
			<path fill="#F8941E" d="M719.566,400.757v-30.603h20.396v4.267h-15.566v9.139h13.021v4.008h-13.021v13.189H719.566z"/>
		</g>
	</g>
</g>
</svg>
